<?xml version="1.0" encoding="UTF-8" standalone="no"?>
<!-- Created with Inkscape (http://www.inkscape.org/) -->

<svg
   width="289.01321mm"
   height="102.94992mm"
   viewBox="0 0 289.01321 102.94992"
   version="1.1"
   id="svg5"
   sodipodi:docname="evens-in-allsets.svg"
   inkscape:version="1.1.2 (0a00cf5339, 2022-02-04)"
   xmlns:inkscape="http://www.inkscape.org/namespaces/inkscape"
   xmlns:sodipodi="http://sodipodi.sourceforge.net/DTD/sodipodi-0.dtd"
   xmlns="http://www.w3.org/2000/svg"
   xmlns:svg="http://www.w3.org/2000/svg">
  <sodipodi:namedview
     id="namedview7"
     pagecolor="#ffffff"
     bordercolor="#999999"
     borderopacity="1"
     inkscape:pageshadow="0"
     inkscape:pageopacity="0"
     inkscape:pagecheckerboard="0"
     inkscape:document-units="mm"
     showgrid="false"
     inkscape:zoom="0.34787913"
     inkscape:cx="472.86539"
     inkscape:cy="192.59563"
     inkscape:window-width="1920"
     inkscape:window-height="1025"
     inkscape:window-x="0"
     inkscape:window-y="29"
     inkscape:window-maximized="1"
     inkscape:current-layer="text2620"
     fit-margin-top="0"
     fit-margin-left="60"
     fit-margin-right="60"
     fit-margin-bottom="0"
     height="134.47083mm" />
  <defs
     id="defs2" />
  <g
     inkscape:label="Layer 1"
     inkscape:groupmode="layer"
     id="layer1"
     transform="translate(41.429393,5.9873003)">
    <g
       aria-label="x ∈ A or x ∈ B ⇔ x ∈ A ∪ B"
       id="text2102"
       style="font-size:21.1667px;text-align:center;text-anchor:middle;stroke-width:0.264583"
       transform="translate(0,-16.404169)">
      <g
         aria-label="x ∈ Evens if x ∈ ℤ and x mod 2 = 0"
         id="text1851"
         style="font-size:22.5778px;stroke-width:0.0700042">
        <g
           aria-label="Events ∈ AllSets"
           id="text2620"
           style="line-height:1.25;letter-spacing:0px;word-spacing:0px;stroke-width:0.0185219">
          <path
             d="M 15.814235,41.510368 H 26.22119 v 1.874134 h -8.180043 v 4.872748 h 7.838289 v 1.874134 h -7.838289 v 5.964155 h 8.378481 v 1.874134 H 15.814235 Z"
             id="path9571" />
          <path
             d="m 28.536297,45.622438 h 2.149741 l 3.858511,10.362858 3.858511,-10.362858 h 2.149742 L 35.922589,57.969673 H 33.16651 Z"
             id="path9573" />
          <path
             d="m 53.914274,51.288937 v 0.992189 h -9.326572 q 0.132292,2.09462 1.256772,3.197052 1.135505,1.091407 3.152955,1.091407 1.168577,0 2.259985,-0.286632 1.102431,-0.286633 2.182814,-0.859897 v 1.918231 q -1.091407,0.463021 -2.237936,0.705556 -1.146529,0.242535 -2.326131,0.242535 -2.954517,0 -4.685334,-1.719793 -1.719794,-1.719793 -1.719794,-4.652262 0,-3.031687 1.631599,-4.806602 1.642623,-1.785939 4.420751,-1.785939 2.491496,0 3.935681,1.60955 1.45521,1.598526 1.45521,4.354605 z M 51.8858,50.693624 q -0.02205,-1.664672 -0.937067,-2.65686 -0.903994,-0.992189 -2.403301,-0.992189 -1.697745,0 -2.723006,0.959116 -1.014238,0.959115 -1.168578,2.700957 z"
             id="path9575" />
          <path
             d="m 67.507258,50.517235 v 7.452438 h -2.028475 v -7.386292 q 0,-1.752866 -0.683507,-2.623787 -0.683508,-0.870921 -2.050523,-0.870921 -1.642623,0 -2.590715,1.04731 -0.948091,1.04731 -0.948091,2.855298 v 6.978392 H 57.166449 V 45.622438 h 2.039498 v 1.918231 q 0.727605,-1.113456 1.708769,-1.664671 0.992189,-0.551216 2.282034,-0.551216 2.127693,0 3.2191,1.322918 1.091408,1.311894 1.091408,3.869535 z"
             id="path9577" />
          <path
             d="m 79.281229,45.986241 v 1.918231 q -0.859897,-0.440973 -1.78594,-0.661459 -0.926042,-0.220486 -1.918231,-0.220486 -1.510331,0 -2.271009,0.463021 -0.749654,0.463021 -0.749654,1.389064 0,0.705556 0.540192,1.113456 0.540191,0.396875 2.17179,0.760678 l 0.694532,0.15434 q 2.160766,0.463021 3.06476,1.311894 0.915019,0.837848 0.915019,2.348179 0,1.719794 -1.367016,2.723007 -1.355991,1.003212 -3.737243,1.003212 -0.992189,0 -2.072572,-0.198437 -1.069358,-0.187414 -2.259985,-0.573265 v -2.09462 q 1.124481,0.584289 2.215888,0.881945 1.091407,0.286633 2.160766,0.286633 1.433161,0 2.204863,-0.48507 0.771703,-0.496095 0.771703,-1.389064 0,-0.826824 -0.56224,-1.267797 -0.551216,-0.440972 -2.436375,-0.848872 l -0.705556,-0.165365 q -1.885158,-0.396875 -2.723006,-1.212675 -0.837848,-0.826823 -0.837848,-2.259985 0,-1.741842 1.234723,-2.689933 1.234724,-0.948091 3.505733,-0.948091 1.12448,0 2.116669,0.165365 0.992188,0.165364 1.830037,0.496094 z"
             id="path9581" />
          <path
             d="m 92.003295,51.057427 q 0.07717,0.815799 0.771702,2.138717 0.8158,1.53238 2.359203,2.392277 1.510321,0.837848 3.141912,0.848872 h 7.683938 v 1.752866 h -7.683938 q -2.116658,0 -4.078978,-1.091407 -1.951304,-1.091407 -2.998614,-3.031687 -1.04731,-1.94028 -1.04731,-4.001827 0,-2.039499 1.04731,-3.979778 1.04731,-1.94028 2.998614,-3.042712 1.96232,-1.102431 4.078978,-1.102431 h 7.683938 v 1.752866 h -7.683938 q -1.631591,0.01102 -3.141912,0.859897 -1.532379,0.870921 -2.359203,2.392276 -0.705556,1.322918 -0.804775,2.34818 h 13.989828 v 1.763891 z"
             id="path9583" />
          <path
             d="m 122.78315,43.704207 -3.02066,8.191068 h 6.05235 z m -1.25677,-2.193839 h 2.52457 l 6.27284,16.459305 h -2.31511 l -1.49931,-4.222313 h -7.41936 l -1.49931,4.222313 h -2.34818 z"
             id="path9585" />
          <path
             d="m 132.63889,40.815836 h 2.02848 v 17.153837 h -2.02848 z"
             id="path9587" />
          <path
             d="m 138.91174,40.815836 h 2.02847 v 17.153837 h -2.02847 z"
             id="path9589" />
          <path
             d="m 155.13952,42.05056 v 2.17179 q -1.2678,-0.606337 -2.39228,-0.903994 -1.12448,-0.297656 -2.17179,-0.297656 -1.81901,0 -2.8112,0.705556 -0.98116,0.705556 -0.98116,2.006426 0,1.091407 0.65043,1.653647 0.66146,0.551216 2.4915,0.89297 l 1.34497,0.275608 q 2.49149,0.474045 3.67109,1.675696 1.19063,1.190626 1.19063,3.197052 0,2.392276 -1.60955,3.627 -1.59853,1.234723 -4.69636,1.234723 -1.16858,0 -2.4915,-0.264583 -1.31189,-0.264584 -2.723,-0.782727 V 54.94901 q 1.35599,0.760678 2.65686,1.146529 1.30087,0.385851 2.55764,0.385851 1.90721,0 2.94349,-0.749653 1.03629,-0.749654 1.03629,-2.138718 0,-1.212674 -0.74965,-1.896182 -0.73863,-0.683508 -2.43638,-1.025262 l -1.35599,-0.264583 q -2.4915,-0.496094 -3.60495,-1.554429 -1.11346,-1.058334 -1.11346,-2.943492 0,-2.182815 1.53238,-3.439587 1.54341,-1.256772 4.24436,-1.256772 1.15756,0 2.35921,0.209462 1.20165,0.209462 2.45842,0.628386 z"
             id="path9591" />
          <path
             d="m 170.07748,51.288937 v 0.992189 h -9.32657 q 0.13229,2.09462 1.25677,3.197052 1.1355,1.091407 3.15295,1.091407 1.16858,0 2.25999,-0.286632 1.10243,-0.286633 2.18281,-0.859897 v 1.918231 q -1.09141,0.463021 -2.23793,0.705556 -1.14653,0.242535 -2.32613,0.242535 -2.95452,0 -4.68534,-1.719793 -1.71979,-1.719793 -1.71979,-4.652262 0,-3.031687 1.6316,-4.806602 1.64262,-1.785939 4.42075,-1.785939 2.49149,0 3.93568,1.60955 1.45521,1.598526 1.45521,4.354605 z M 168.049,50.693624 q -0.022,-1.664672 -0.93706,-2.65686 -0.904,-0.992189 -2.4033,-0.992189 -1.69775,0 -2.72301,0.959116 -1.01424,0.959115 -1.16858,2.700957 z"
             id="path9593" />
          <path
             d="m 175.41325,42.116706 v 3.505732 h 4.17821 v 1.576478 h -4.17821 V 53.9017 q 0,1.510332 0.4079,1.94028 0.41892,0.429948 1.68672,0.429948 h 2.08359 v 1.697745 h -2.08359 q -2.34818,0 -3.24115,-0.870921 -0.89297,-0.881945 -0.89297,-3.197052 v -6.702784 h -1.48828 v -1.576478 h 1.48828 v -3.505732 z"
             id="path9595" />
          <path
             d="m 190.13071,45.986241 v 1.918231 q -0.8599,-0.440973 -1.78594,-0.661459 -0.92604,-0.220486 -1.91823,-0.220486 -1.51033,0 -2.27101,0.463021 -0.74965,0.463021 -0.74965,1.389064 0,0.705556 0.54019,1.113456 0.54019,0.396875 2.17179,0.760678 l 0.69453,0.15434 q 2.16077,0.463021 3.06476,1.311894 0.91502,0.837848 0.91502,2.348179 0,1.719794 -1.36702,2.723007 -1.35599,1.003212 -3.73724,1.003212 -0.99219,0 -2.07257,-0.198437 -1.06936,-0.187414 -2.25999,-0.573265 v -2.09462 q 1.12448,0.584289 2.21589,0.881945 1.09141,0.286633 2.16077,0.286633 1.43316,0 2.20486,-0.48507 0.7717,-0.496095 0.7717,-1.389064 0,-0.826824 -0.56224,-1.267797 -0.55121,-0.440972 -2.43637,-0.848872 l -0.70556,-0.165365 q -1.88516,-0.396875 -2.723,-1.212675 -0.83785,-0.826823 -0.83785,-2.259985 0,-1.741842 1.23472,-2.689933 1.23472,-0.948091 3.50573,-0.948091 1.12448,0 2.11667,0.165365 0.99219,0.165364 1.83004,0.496094 z"
             id="path9597" />
        </g>
      </g>
    </g>
  </g>
</svg>
