<?xml version="1.0" encoding="UTF-8" standalone="no"?>
<!-- Created with Inkscape (http://www.inkscape.org/) -->

<svg
   width="289.01321mm"
   height="102.94992mm"
   viewBox="0 0 289.01321 102.94992"
   version="1.1"
   id="svg5"
   sodipodi:docname="graph-eulerian-circuit.svg"
   inkscape:version="1.1.2 (0a00cf5339, 2022-02-04)"
   xmlns:inkscape="http://www.inkscape.org/namespaces/inkscape"
   xmlns:sodipodi="http://sodipodi.sourceforge.net/DTD/sodipodi-0.dtd"
   xmlns="http://www.w3.org/2000/svg"
   xmlns:svg="http://www.w3.org/2000/svg">
  <sodipodi:namedview
     id="namedview7"
     pagecolor="#ffffff"
     bordercolor="#999999"
     borderopacity="1"
     inkscape:pageshadow="0"
     inkscape:pageopacity="0"
     inkscape:pagecheckerboard="0"
     inkscape:document-units="mm"
     showgrid="false"
     inkscape:zoom="0.49206588"
     inkscape:cx="490.78794"
     inkscape:cy="152.41862"
     inkscape:window-width="1920"
     inkscape:window-height="1025"
     inkscape:window-x="0"
     inkscape:window-y="29"
     inkscape:window-maximized="1"
     inkscape:current-layer="text1851"
     fit-margin-top="0"
     fit-margin-left="60"
     fit-margin-right="60"
     fit-margin-bottom="0"
     height="134.47083mm" />
  <defs
     id="defs2" />
  <g
     inkscape:label="Layer 1"
     inkscape:groupmode="layer"
     id="layer1"
     transform="translate(41.429393,5.9873003)">
    <g
       aria-label="x ∈ A or x ∈ B ⇔ x ∈ A ∪ B"
       id="text2102"
       style="font-size:21.1667px;text-align:center;text-anchor:middle;stroke-width:0.264583"
       transform="translate(0,-16.404169)">
      <g
         aria-label="x ∈ Evens if x ∈ ℤ and x mod 2 = 0"
         id="text1851"
         style="font-size:22.5778px;stroke-width:0.0700042">
        <g
           id="g7060"
           transform="translate(27.908685,5.7206292)">
          <path
             style="fill:none;stroke:#000000;stroke-width:2;stroke-linecap:butt;stroke-linejoin:miter;stroke-miterlimit:4;stroke-dasharray:none;stroke-opacity:1"
             d="m 47.20985,25.722635 54.21622,3.339648"
             id="path2028"
             sodipodi:nodetypes="cc" />
          <path
             style="font-size:22.5778px;text-align:center;text-anchor:middle;fill:none;stroke:#000000;stroke-width:2;stroke-linecap:butt;stroke-linejoin:miter;stroke-miterlimit:4;stroke-dasharray:none;stroke-opacity:1"
             d="M 103.53705,83.905793 48.725492,84.820322"
             id="path2028-1"
             sodipodi:nodetypes="cc" />
          <path
             style="font-size:22.5778px;text-align:center;text-anchor:middle;fill:none;stroke:#000000;stroke-width:2;stroke-linecap:butt;stroke-linejoin:miter;stroke-miterlimit:4;stroke-dasharray:none;stroke-opacity:1"
             d="m 103.53705,83.905793 -2.11098,-54.84351"
             id="path2028-1-9"
             sodipodi:nodetypes="cc" />
          <path
             style="font-size:22.5778px;text-align:center;text-anchor:middle;fill:none;stroke:#000000;stroke-width:2;stroke-linecap:butt;stroke-linejoin:miter;stroke-miterlimit:4;stroke-dasharray:none;stroke-opacity:1"
             d="m 47.20985,25.722635 1.515642,59.097687"
             id="path2028-2"
             sodipodi:nodetypes="cc" />
          <circle
             style="fill:#dbffdb;fill-opacity:1;stroke:#000000;stroke-width:2;stroke-miterlimit:4;stroke-dasharray:none;stroke-dashoffset:34.5827;stroke-opacity:1"
             id="path1197"
             cx="46.418076"
             cy="26.225693"
             r="6.0510912" />
          <circle
             style="font-size:22.5778px;text-align:center;text-anchor:middle;fill:#dbffdb;fill-opacity:1;stroke:#000000;stroke-width:2;stroke-miterlimit:4;stroke-dasharray:none;stroke-dashoffset:34.5827;stroke-opacity:1"
             id="path1197-3"
             cx="48.942871"
             cy="86.116707"
             r="6.0510912" />
          <circle
             style="font-size:22.5778px;text-align:center;text-anchor:middle;fill:#dbffdb;fill-opacity:1;stroke:#000000;stroke-width:2;stroke-miterlimit:4;stroke-dasharray:none;stroke-dashoffset:34.5827;stroke-opacity:1"
             id="path1197-6"
             cx="101.03287"
             cy="28.661823"
             r="6.0510912" />
          <circle
             style="font-size:22.5778px;text-align:center;text-anchor:middle;fill:#dbffdb;fill-opacity:1;stroke:#000000;stroke-width:2;stroke-miterlimit:4;stroke-dasharray:none;stroke-dashoffset:34.5827;stroke-opacity:1"
             id="path1197-9"
             cx="103.91898"
             cy="84.06324"
             r="6.0510912" />
          <path
             style="fill:none;stroke:#000000;stroke-width:0.264583px;stroke-linecap:butt;stroke-linejoin:miter;stroke-opacity:1"
             d="m 58.282872,33.954418 c 1.752413,0.02346 3.507799,-0.08129 5.258869,0 2.745431,0.127455 5.389671,0.951283 8.097343,1.261036 0.815054,0.09324 1.642068,-0.04663 2.461112,0 3.101583,0.176594 6.111753,0.608907 9.226129,0.608907 1.04998,0 6.76112,0.292891 7.445772,0 0.131561,-0.05628 -0.06472,-0.294746 -0.165897,-0.395931"
             id="path6912" />
          <path
             style="fill:none;stroke:#000000;stroke-width:0.264583px;stroke-linecap:butt;stroke-linejoin:miter;stroke-opacity:1"
             d="m 88.4886,31.893408 c 1.345324,2.444899 -0.373388,-0.735091 0.845396,1.70087 0.178404,0.35657 0.361638,0.711871 0.572956,1.049977 0.167454,0.26793 1.263597,1.369164 1.140632,1.609757 -0.09469,0.185264 -0.353748,0.22239 -0.51031,0.359418 -0.134874,0.118042 -0.244129,0.263566 -0.380212,0.38021 -0.347578,0.297924 -0.812366,0.432157 -1.140632,0.760421 -0.220284,0.220284 -0.307906,0.509386 -0.475263,0.760423 -0.10205,0.153074 -0.308078,0.14755 -0.379021,0.283966 -0.06926,0.133184 0.02111,0.198943 -0.08892,0.08892"
             id="path6916" />
          <path
             style="fill:none;stroke:#000000;stroke-width:0.264583px;stroke-linecap:butt;stroke-linejoin:miter;stroke-opacity:1"
             d="m 98.057716,42.855187 c 0,0.764162 -0.05461,1.530276 0,2.292485 0.180076,2.513317 0.522798,5.013198 0.703509,7.52647 0.266824,3.710956 -0.383948,7.416863 -0.383948,11.107642 0,1.198856 0.290584,4.298762 0,5.315802 -0.572262,2.002917 -0.363122,-0.872167 -0.58063,2.132386 -0.03312,0.457475 0.209354,5.570402 0.190105,5.595993 -0.162234,0.215677 -0.213219,0.439996 -0.213219,-0.07769"
             id="path6918" />
          <path
             style="fill:none;stroke:#000000;stroke-width:0.264583px;stroke-linecap:butt;stroke-linejoin:miter;stroke-opacity:1"
             d="m 96.232234,75.011195 c 0.19362,0.25453 0.364046,0.477153 0.560562,0.750888 0.149715,0.208542 0.279792,0.431088 0.435422,0.635254 0.08011,0.105095 0.185505,0.212024 0.285126,0.299873 0.04923,0.04341 0.108622,0.07738 0.157866,0.121677 0.204542,0.183978 -0.0096,0.0095 0.08317,0.07129 0.01736,0.01159 0.02524,0.03636 0.0355,0.04661 0.0093,0.0093 0.05542,-0.03643 0.09255,-0.0687 0.04327,-0.0376 0.0854,-0.07649 0.128095,-0.114742 0.09357,-0.0802 0.187606,-0.159856 0.280705,-0.240604 0.222705,-0.193159 0.433919,-0.399444 0.659111,-0.589701 0.194059,-0.163954 0.338212,-0.242284 0.562626,-0.377023 0.214146,-0.128574 0.28176,-0.149093 0.592203,-0.255305 0.16,-0.05474 0.28104,-0.06948 0.43237,-0.114924 0.008,-0.0026 0.0174,-0.0057 0.0238,-0.01188 0.006,-0.0055 -0.0287,-0.01132 -0.0208,-0.01132 0.007,0 0.0277,0 0.0208,0 -0.041,0 -0.0499,-0.0024 -0.0975,-0.01188"
             id="path6920" />
          <path
             style="fill:none;stroke:#000000;stroke-width:0.264583px;stroke-linecap:butt;stroke-linejoin:miter;stroke-opacity:1"
             d="m 96.232231,75.011195 c -3.665481,1.434611 -7.137447,3.527949 -10.996448,4.303832 -3.401756,0.68395 -6.939663,0 -10.409494,0 -5.244319,0 -12.213764,-0.380212 -16.727966,-0.380212 1.307089,-0.766828 2.782869,-1.166724 4.160103,-1.774571 0.156496,-0.06907 1.31348,-0.457843 1.231188,-0.55905 -0.122116,-0.150182 -0.52727,0.309944 -0.594688,0.377362"
             id="path6922" />
          <path
             style="fill:none;stroke:#000000;stroke-width:0.264583px;stroke-linecap:butt;stroke-linejoin:miter;stroke-opacity:1"
             d="m 58.098323,78.934815 c 1.287145,0.488723 2.619856,0.986243 3.802163,1.634948 0.103037,0.05654 0.335074,0.03724 0.450694,0.09505 0.164147,0.08207 0.312433,0.19276 0.471688,0.283967 0.302673,0.173347 0.65976,0.300805 0.950527,0.475263 0.177964,0.106778 0.367233,0.324482 0.570317,0.380212 0.04931,0.01352 0,-0.102259 0,-0.153387"
             id="path6924" />
          <path
             style="fill:none;stroke:#000000;stroke-width:0.264583px;stroke-linecap:butt;stroke-linejoin:miter;stroke-opacity:1"
             d="M 55.05141,73.950806 C 54.50095,71.74897 53.584447,68.09417 53.359016,66.903711 52.580051,62.790147 52.02858,58.636144 51.448582,54.489842 c -0.219117,-1.566425 -0.885365,-4.469688 -0.479163,-6.104868 0.431871,-1.738509 0.692184,-3.528925 0.948132,-5.320554 0.186303,-1.304121 -0.186304,-2.688087 0,-3.992211 0.06883,-0.481777 0.190105,-0.836022 0.190105,-1.328359"
             id="path6926" />
          <path
             style="fill:none;stroke:#000000;stroke-width:0.264583px;stroke-linecap:butt;stroke-linejoin:miter;stroke-opacity:1"
             d="m 48.978726,40.985163 c 0.134167,-0.156573 0.306075,-0.287462 0.402508,-0.469718 0.165666,-0.313113 0.177638,-0.691343 0.33606,-1.008184 0.151516,-0.303032 0.215654,-0.342244 0.403275,-0.604911 0.125016,-0.175025 0.224811,-0.456579 0.336061,-0.604912 0.168447,-0.224597 0.883952,-0.539758 1.139711,-0.603697 0.106614,-0.02665 0.532797,-0.163952 0.650359,-0.06721 0.08766,0.07213 0.217453,0.552071 0.238006,0.603358 0.17135,0.427588 0.107479,0.33333 0.419478,0.763641 0.228159,0.314676 0.447575,0.642374 0.679659,0.95182 0.164624,0.219498 0.448104,0.388352 0.672124,0.537699 0.18142,0.120946 0.283258,0.358087 0.402447,0.536871 0.117234,0.175853 0.311904,0.244695 0.46014,0.392928"
             id="path6932" />
        </g>
      </g>
    </g>
  </g>
</svg>
