<?xml version="1.0" encoding="UTF-8" standalone="no"?>
<!-- Created with Inkscape (http://www.inkscape.org/) -->

<svg
   width="289.01321mm"
   height="102.94992mm"
   viewBox="0 0 289.01321 102.94992"
   version="1.1"
   id="svg5"
   sodipodi:docname="graph-disconnected-no.svg"
   inkscape:version="1.1.2 (0a00cf5339, 2022-02-04)"
   xmlns:inkscape="http://www.inkscape.org/namespaces/inkscape"
   xmlns:sodipodi="http://sodipodi.sourceforge.net/DTD/sodipodi-0.dtd"
   xmlns="http://www.w3.org/2000/svg"
   xmlns:svg="http://www.w3.org/2000/svg">
  <sodipodi:namedview
     id="namedview7"
     pagecolor="#ffffff"
     bordercolor="#999999"
     borderopacity="1"
     inkscape:pageshadow="0"
     inkscape:pageopacity="0"
     inkscape:pagecheckerboard="0"
     inkscape:document-units="mm"
     showgrid="false"
     inkscape:zoom="0.98413176"
     inkscape:cx="538.03771"
     inkscape:cy="196.11195"
     inkscape:window-width="1920"
     inkscape:window-height="1025"
     inkscape:window-x="0"
     inkscape:window-y="29"
     inkscape:window-maximized="1"
     inkscape:current-layer="text1851"
     fit-margin-top="0"
     fit-margin-left="60"
     fit-margin-right="60"
     fit-margin-bottom="0"
     height="134.47083mm" />
  <defs
     id="defs2" />
  <g
     inkscape:label="Layer 1"
     inkscape:groupmode="layer"
     id="layer1"
     transform="translate(41.429393,5.9873003)">
    <g
       aria-label="x ∈ A or x ∈ B ⇔ x ∈ A ∪ B"
       id="text2102"
       style="font-size:21.1667px;text-align:center;text-anchor:middle;stroke-width:0.264583"
       transform="translate(0,-16.404169)">
      <g
         aria-label="x ∈ Evens if x ∈ ℤ and x mod 2 = 0"
         id="text1851"
         style="font-size:22.5778px;stroke-width:0.0700042">
        <path
           style="fill:none;stroke:#000000;stroke-width:2;stroke-linecap:butt;stroke-linejoin:miter;stroke-miterlimit:4;stroke-dasharray:none;stroke-opacity:1"
           d="M 47.20985,25.722635 88.477444,55.106143"
           id="path2028" />
        <path
           style="font-size:22.5778px;text-align:center;text-anchor:middle;fill:none;stroke:#000000;stroke-width:2;stroke-linecap:butt;stroke-linejoin:miter;stroke-miterlimit:4;stroke-dasharray:none;stroke-opacity:1"
           d="M 88.477444,55.106143 48.725492,84.820322"
           id="path2028-1"
           sodipodi:nodetypes="cc" />
        <path
           style="font-size:22.5778px;text-align:center;text-anchor:middle;fill:none;stroke:#000000;stroke-width:2;stroke-linecap:butt;stroke-linejoin:miter;stroke-miterlimit:4;stroke-dasharray:none;stroke-opacity:1"
           d="m 47.20985,25.722635 1.515642,59.097687"
           id="path2028-2"
           sodipodi:nodetypes="cc" />
        <path
           style="font-size:22.5778px;text-align:center;text-anchor:middle;fill:none;stroke:#000000;stroke-width:2;stroke-linecap:butt;stroke-linejoin:miter;stroke-miterlimit:4;stroke-dasharray:none;stroke-opacity:1"
           d="m 140.10316,26.583286 -1.92768,62.977019"
           id="path2028-9"
           sodipodi:nodetypes="cc" />
        <path
           style="font-size:22.5778px;text-align:center;text-anchor:middle;fill:none;stroke:#000000;stroke-width:2;stroke-linecap:butt;stroke-linejoin:miter;stroke-miterlimit:4;stroke-dasharray:none;stroke-opacity:1"
           d="M 168.17115,58.914842 138.17548,89.560305"
           id="path2028-3"
           sodipodi:nodetypes="cc" />
        <path
           style="font-size:22.5778px;text-align:center;text-anchor:middle;fill:none;stroke:#000000;stroke-width:2;stroke-linecap:butt;stroke-linejoin:miter;stroke-miterlimit:4;stroke-dasharray:none;stroke-opacity:1"
           d="m 140.10316,26.583286 28.06799,32.331556"
           id="path2028-6"
           sodipodi:nodetypes="cc" />
        <circle
           style="fill:#dbffdb;fill-opacity:1;stroke:#000000;stroke-width:2;stroke-miterlimit:4;stroke-dasharray:none;stroke-dashoffset:34.5827;stroke-opacity:1"
           id="path1197"
           cx="46.418076"
           cy="26.225693"
           r="6.0510912" />
        <circle
           style="font-size:22.5778px;text-align:center;text-anchor:middle;fill:#dbffdb;fill-opacity:1;stroke:#000000;stroke-width:2;stroke-miterlimit:4;stroke-dasharray:none;stroke-dashoffset:34.5827;stroke-opacity:1"
           id="path1197-3"
           cx="48.942871"
           cy="86.116707"
           r="6.0510912" />
        <circle
           style="font-size:22.5778px;text-align:center;text-anchor:middle;fill:#dbffdb;fill-opacity:1;stroke:#000000;stroke-width:2;stroke-miterlimit:4;stroke-dasharray:none;stroke-dashoffset:34.5827;stroke-opacity:1"
           id="path1197-6"
           cx="89.415756"
           cy="54.602928"
           r="6.0510912" />
        <circle
           style="font-size:22.5778px;text-align:center;text-anchor:middle;fill:#dbffdb;fill-opacity:1;stroke:#000000;stroke-width:2;stroke-miterlimit:4;stroke-dasharray:none;stroke-dashoffset:34.5827;stroke-opacity:1"
           id="path1197-7"
           cx="139.52339"
           cy="26.791092"
           r="6.0510912" />
        <circle
           style="font-size:22.5778px;text-align:center;text-anchor:middle;fill:#dbffdb;fill-opacity:1;stroke:#000000;stroke-width:2;stroke-miterlimit:4;stroke-dasharray:none;stroke-dashoffset:34.5827;stroke-opacity:1"
           id="path1197-5"
           cx="169.36569"
           cy="58.784184"
           r="6.0510912" />
        <circle
           style="font-size:22.5778px;text-align:center;text-anchor:middle;fill:#dbffdb;fill-opacity:1;stroke:#000000;stroke-width:2;stroke-miterlimit:4;stroke-dasharray:none;stroke-dashoffset:34.5827;stroke-opacity:1"
           id="path1197-9"
           cx="138.448"
           cy="88.895325"
           r="6.0510912" />
        <g
           id="g7953">
          <path
             style="fill:none;stroke:#ff0000;stroke-width:4;stroke-linecap:butt;stroke-linejoin:miter;stroke-opacity:1;stroke-miterlimit:4;stroke-dasharray:none"
             d="M 36.688608,19.463669 185.2373,89.375869"
             id="path955" />
          <path
             style="fill:none;stroke:#ff0000;stroke-width:4;stroke-linecap:butt;stroke-linejoin:miter;stroke-opacity:1;stroke-miterlimit:4;stroke-dasharray:none"
             d="M 182.69598,20.478238 37.105649,92.766944"
             id="path957" />
        </g>
      </g>
    </g>
  </g>
</svg>
