<?xml version="1.0" encoding="UTF-8" standalone="no"?>
<!-- Created with Inkscape (http://www.inkscape.org/) -->

<svg
   width="187.96877mm"
   height="35.485931mm"
   viewBox="0 0 187.96876 35.485931"
   version="1.1"
   id="svg5"
   sodipodi:docname="group-triangle-equality.svg"
   inkscape:version="1.1.2 (0a00cf5339, 2022-02-04)"
   xmlns:inkscape="http://www.inkscape.org/namespaces/inkscape"
   xmlns:sodipodi="http://sodipodi.sourceforge.net/DTD/sodipodi-0.dtd"
   xmlns="http://www.w3.org/2000/svg"
   xmlns:svg="http://www.w3.org/2000/svg">
  <sodipodi:namedview
     id="namedview7"
     pagecolor="#ffffff"
     bordercolor="#999999"
     borderopacity="1"
     inkscape:pageshadow="0"
     inkscape:pageopacity="0"
     inkscape:pagecheckerboard="0"
     inkscape:document-units="mm"
     showgrid="false"
     inkscape:zoom="1.5131614"
     inkscape:cx="355.21656"
     inkscape:cy="66.747671"
     inkscape:window-width="1920"
     inkscape:window-height="1025"
     inkscape:window-x="0"
     inkscape:window-y="29"
     inkscape:window-maximized="1"
     inkscape:current-layer="g33485-8"
     fit-margin-top="0"
     fit-margin-left="0"
     fit-margin-right="0"
     fit-margin-bottom="0"
     height="134.47083mm" />
  <defs
     id="defs2" />
  <g
     inkscape:label="Layer 1"
     inkscape:groupmode="layer"
     id="layer1"
     transform="translate(-17.725503,-11.022845)">
    <g
       aria-label="x ∈ A or x ∈ B ⇔ x ∈ A ∪ B"
       id="text2102"
       style="font-size:21.1667px;text-align:center;text-anchor:middle;stroke-width:0.264583"
       transform="translate(0,-16.404169)">
      <g
         aria-label="x ∈ Evens if x ∈ ℤ and x mod 2 = 0"
         id="text1851"
         style="font-size:22.5778px;stroke-width:0.0700042">
        <g
           id="g57206"
           style="line-height:1.25;letter-spacing:0px;word-spacing:0px;stroke-width:0.0185219"
           transform="translate(-2.6852206,-3.1750001)">
          <g
             id="g56734">
            <g
               id="g33485-7"
               transform="matrix(-0.20658045,0.35909113,-0.35909113,-0.20658045,111.13398,25.298629)"
               style="font-size:22.5778px;line-height:1.25;text-align:center;letter-spacing:0px;word-spacing:0px;text-anchor:middle;stroke-width:0.0185219">
              <path
                 sodipodi:type="star"
                 style="fill:none;stroke:#000000;stroke-width:3.77953;stroke-dashoffset:34.5827"
                 id="path19074-5"
                 inkscape:flatsided="true"
                 sodipodi:sides="3"
                 sodipodi:cx="558.44336"
                 sodipodi:cy="119.64167"
                 sodipodi:r1="117.90395"
                 sodipodi:r2="58.951977"
                 sodipodi:arg1="2.5290514"
                 sodipodi:arg2="3.576249"
                 inkscape:rounded="0"
                 inkscape:randomized="0"
                 transform="matrix(0.26348889,0.02404049,-0.02404049,0.26348889,-32.439312,16.18626)"
                 inkscape:transform-center-x="0.031893469"
                 inkscape:transform-center-y="-7.7712182"
                 d="M 461.97557,187.43038 547.97051,2.2037645 665.38399,169.29087 Z" />
              <text
                 xml:space="preserve"
                 style="font-style:normal;font-weight:normal;font-size:10.5833px;line-height:1.25;font-family:sans-serif;letter-spacing:0px;word-spacing:0px;fill:#800000;fill-opacity:1;stroke:none;stroke-width:0.00490059"
                 x="111.65368"
                 y="27.964821"
                 id="text26759-35"><tspan
                   sodipodi:role="line"
                   id="tspan26757-62"
                   style="fill:#800000;stroke-width:0.00490059"
                   x="111.65368"
                   y="27.964821">A</tspan></text>
              <text
                 xml:space="preserve"
                 style="font-style:normal;font-weight:normal;font-size:10.5833px;line-height:1.25;font-family:sans-serif;text-align:center;letter-spacing:0px;word-spacing:0px;text-anchor:middle;fill:#0000ff;fill-opacity:1;stroke:none;stroke-width:0.00490059"
                 x="143.31784"
                 y="82.040504"
                 id="text26759-3-9"><tspan
                   sodipodi:role="line"
                   id="tspan26757-6-1"
                   style="fill:#0000ff;stroke-width:0.00490059"
                   x="143.31784"
                   y="82.040504">B</tspan></text>
              <text
                 xml:space="preserve"
                 style="font-style:normal;font-weight:normal;font-size:10.5833px;line-height:1.25;font-family:sans-serif;letter-spacing:0px;word-spacing:0px;fill:#008000;fill-opacity:1;stroke:none;stroke-width:0.00490059"
                 x="79.763947"
                 y="82.24929"
                 id="text31214-2"><tspan
                   sodipodi:role="line"
                   id="tspan31212-7"
                   style="fill:#008000;stroke-width:0.00490059"
                   x="79.763947"
                   y="82.24929">C</tspan></text>
            </g>
            <path
               style="fill:none;stroke:#000000;stroke-width:0.22763px;stroke-linecap:butt;stroke-linejoin:miter;stroke-opacity:1"
               d="m 63.055899,49.98127 c 0.227081,-0.04118 0.407094,-0.200371 0.614186,-0.289124 0.03652,-0.01566 0.07912,-0.01328 0.115649,-0.02892 0.03194,-0.01368 0.05332,-0.04827 0.08674,-0.05782 0.03707,-0.01058 0.07825,0.0094 0.11565,0 0.133763,-0.03344 0.263025,-0.124313 0.404778,-0.144563 0.125173,-0.0179 0.249833,-0.03682 0.375863,-0.05782 0.186336,-0.03106 0.395553,0.0086 0.578461,0.02898 0.199903,0.02224 0.406813,-0.01671 0.607303,0 0.327391,0.02728 0.0276,0.02555 0.31804,0.05782 0.03831,0.0042 0.07858,-0.01058 0.11565,0 0.03342,0.0095 0.05566,0.04228 0.08674,0.05782 0.201374,0.100687 0.434547,0.08759 0.607165,0.260212 0.03048,0.03048 0.03196,0.08117 0.05782,0.115651 0.03271,0.04362 0.08159,0.07308 0.11565,0.115652 0.18568,0.232099 0.239007,0.532938 0.318039,0.809552 0.02728,0.09549 0.123418,0.15449 0.144563,0.260213 0.04176,0.20881 0.06246,0.872037 0.02892,1.039775 -0.05583,0.279146 -0.0033,-0.237063 -0.05782,0.144561 -0.0365,0.255511 0.02683,0.49778 -0.05782,0.751729 -0.05602,0.168044 -0.140652,0.326891 -0.202386,0.491513 -0.01261,0.03361 -0.03453,0.163558 -0.05783,0.202389 -0.161351,0.268923 0.05795,-0.202629 -0.115649,0.144563 -0.08473,0.169447 -0.135955,0.361357 -0.233057,0.523194 -0.0897,0.149507 -0.24736,0.265325 -0.348123,0.406217 -0.04208,0.05884 -0.08454,0.18329 -0.144563,0.231302 -0.03366,0.02693 -0.08058,0.03277 -0.11565,0.05782 -0.504851,0.360608 -0.756971,0.640347 -1.416718,0.722816 -0.193048,0.02413 -0.370887,0.08674 -0.563242,0.08674"
               id="path46311" />
          </g>
          <path
             style="fill:none;stroke:#000000;stroke-width:0.22763px;stroke-linecap:butt;stroke-linejoin:miter;stroke-opacity:1"
             d="m 64.805708,55.031541 c -0.181033,0.09668 -0.775126,0.553786 -0.655736,0.817261 0.0066,0.01455 0.08205,0.034 0.0872,0.03915 0.01523,0.01523 0.01928,0.03855 0.02892,0.05782 0.02891,0.02892 0.05446,0.06164 0.08674,0.08674 0.06878,0.05349 0.183246,0.118393 0.261215,0.174076 0.307237,0.219426 0.622876,0.44771 0.986713,0.551726 0.04487,0.01282 0.09985,0.0612 0.130649,0.06905"
             id="path46313" />
        </g>
        <g
           id="g57193"
           style="line-height:1.25;letter-spacing:0px;word-spacing:0px;stroke-width:0.0185219"
           transform="translate(-16.609279,-3.2082093)">
          <g
             id="g33485-8"
             transform="matrix(-0.41427277,0,0,0.41427277,175.29827,27.879399)"
             style="font-size:22.5778px;line-height:1.25;text-align:center;letter-spacing:0px;word-spacing:0px;text-anchor:middle;stroke-width:0.0185219">
            <path
               sodipodi:type="star"
               style="fill:none;stroke:#000000;stroke-width:3.77953;stroke-dashoffset:34.5827"
               id="path19074-7"
               inkscape:flatsided="true"
               sodipodi:sides="3"
               sodipodi:cx="558.44336"
               sodipodi:cy="119.64167"
               sodipodi:r1="117.90395"
               sodipodi:r2="58.951977"
               sodipodi:arg1="2.5290514"
               sodipodi:arg2="3.576249"
               inkscape:rounded="0"
               inkscape:randomized="0"
               transform="matrix(0.26348889,0.02404049,-0.02404049,0.26348889,-32.439312,16.18626)"
               inkscape:transform-center-x="0.031893469"
               inkscape:transform-center-y="-7.7712182"
               d="M 461.97557,187.43038 547.97051,2.2037645 665.38399,169.29087 Z" />
          </g>
          <path
             style="fill:none;stroke:#000000;stroke-width:0.22763px;stroke-linecap:butt;stroke-linejoin:miter;stroke-opacity:1"
             d="m 122.61157,57.342834 c 2.18149,0 4.363,0 6.5445,0 0.8249,0 1.65167,0.03407 2.46272,-0.08177 0.21917,-0.03131 0.39893,-0.005 0.57244,0.08177 0.17095,0.08547 1.6205,0.04346 1.88126,0 0.25106,-0.04185 0.40026,-0.24533 0.63428,-0.24533"
             id="path46547" />
          <path
             style="fill:none;stroke:#000000;stroke-width:0.22763px;stroke-linecap:butt;stroke-linejoin:miter;stroke-opacity:1"
             d="m 133.24849,56.137586 c 0.12715,0.13501 0.25311,0.271146 0.38144,0.405031 0.24192,0.25239 0.59629,0.44317 0.81778,0.654218 0.0647,0.06167 0.22194,0.239949 0.22194,0.150552 0,-0.05356 -0.15399,0.267103 -0.31871,0.431826 -0.19955,0.199559 -0.40377,0.446434 -0.65421,0.572441 -0.0514,0.02584 -0.19273,0.04385 -0.23133,0.08076 -0.14041,0.13422 -0.26637,0.413077 -0.40786,0.556368"
             id="path46549" />
          <path
             style="fill:none;stroke:#000000;stroke-width:0.22763px;stroke-linecap:butt;stroke-linejoin:miter;stroke-opacity:1"
             d="m 123.66531,56.010891 c 0.02,0.254557 -0.61338,0.329054 -0.76601,0.48168 -0.0756,0.07565 -0.58651,0.792575 -0.54174,0.898371 0.19004,0.449058 1.4918,1.273025 1.67325,1.273025"
             id="path46551" />
        </g>
        <g
           id="g57366"
           transform="translate(-2.5225528,-3.1750001)">
          <g
             id="g33485-9"
             transform="matrix(0.21210341,0.35585682,0.35585682,-0.21210341,116.22424,25.892342)"
             style="font-size:22.5778px;line-height:1.25;text-align:center;letter-spacing:0px;word-spacing:0px;text-anchor:middle;stroke-width:0.0185219">
            <path
               sodipodi:type="star"
               style="fill:none;stroke:#000000;stroke-width:3.77953;stroke-dashoffset:34.5827"
               id="path19074-2"
               inkscape:flatsided="true"
               sodipodi:sides="3"
               sodipodi:cx="558.44336"
               sodipodi:cy="119.64167"
               sodipodi:r1="117.90395"
               sodipodi:r2="58.951977"
               sodipodi:arg1="2.5290514"
               sodipodi:arg2="3.576249"
               inkscape:rounded="0"
               inkscape:randomized="0"
               transform="matrix(0.26348889,0.02404049,-0.02404049,0.26348889,-32.439312,16.18626)"
               inkscape:transform-center-x="0.031893469"
               inkscape:transform-center-y="-7.7712182"
               d="M 461.97557,187.43038 547.97051,2.2037645 665.38399,169.29087 Z" />
            <text
               xml:space="preserve"
               style="font-style:normal;font-weight:normal;font-size:10.5833px;line-height:1.25;font-family:sans-serif;letter-spacing:0px;word-spacing:0px;fill:#800000;fill-opacity:1;stroke:none;stroke-width:0.00490059"
               x="111.65368"
               y="27.964821"
               id="text26759-2"><tspan
                 sodipodi:role="line"
                 id="tspan26757-8"
                 style="fill:#800000;stroke-width:0.00490059"
                 x="111.65368"
                 y="27.964821">A</tspan></text>
            <text
               xml:space="preserve"
               style="font-style:normal;font-weight:normal;font-size:10.5833px;line-height:1.25;font-family:sans-serif;text-align:center;letter-spacing:0px;word-spacing:0px;text-anchor:middle;fill:#0000ff;fill-opacity:1;stroke:none;stroke-width:0.00490059"
               x="143.31784"
               y="82.040504"
               id="text26759-3-97"><tspan
                 sodipodi:role="line"
                 id="tspan26757-6-3"
                 style="fill:#0000ff;stroke-width:0.00490059"
                 x="143.31784"
                 y="82.040504">B</tspan></text>
            <text
               xml:space="preserve"
               style="font-style:normal;font-weight:normal;font-size:10.5833px;line-height:1.25;font-family:sans-serif;letter-spacing:0px;word-spacing:0px;fill:#008000;fill-opacity:1;stroke:none;stroke-width:0.00490059"
               x="79.763947"
               y="82.24929"
               id="text31214-61"><tspan
                 sodipodi:role="line"
                 id="tspan31212-2"
                 style="fill:#008000;stroke-width:0.00490059"
                 x="79.763947"
                 y="82.24929">C</tspan></text>
          </g>
          <path
             style="line-height:1.25;letter-spacing:0px;word-spacing:0px;fill:none;stroke:#000000;stroke-width:0.22763px;stroke-linecap:butt;stroke-linejoin:miter;stroke-opacity:1"
             d="m 161.20457,45.980559 c -0.0306,0.616065 -0.27127,1.154546 -0.57243,1.656489 -0.17622,0.293696 -0.48065,0.51403 -0.65423,0.817771 -0.27217,0.47632 -0.66875,0.788132 -0.9914,1.236726 -0.21487,0.298767 -0.43317,0.604837 -0.65421,0.899547 -0.16378,0.218373 -0.19409,0.530873 -0.32608,0.728853 -0.0642,0.09623 -0.20876,0.135615 -0.24533,0.24533 -0.0172,0.05172 0.0243,0.114792 0,0.163555 -0.0973,0.194684 -0.3047,0.363806 -0.41033,0.574601 -0.31081,0.62025 -0.83795,1.203061 -1.14385,1.798067 -0.0586,0.113976 -0.38134,0.837841 -0.38134,0.703965"
             id="path46557" />
          <path
             style="line-height:1.25;letter-spacing:0px;word-spacing:0px;fill:none;stroke:#000000;stroke-width:0.22763px;stroke-linecap:butt;stroke-linejoin:miter;stroke-opacity:1"
             d="m 155.59371,52.806376 c 0.0247,0.08647 0.0683,0.221848 0.0776,0.315243 0.0124,0.123861 -0.0113,0.251928 0,0.375863 0.0166,0.182783 0.0512,0.37155 0.0867,0.549339 0.0165,0.08267 -0.0204,0.177843 0,0.259492 0.0375,0.150128 0.0289,-0.03087 0.0289,0.11565 0,0.08112 0.0289,0.146097 0.0289,0.231299 0,0.03835 0,0.153432 0,0.115074 0,-0.01063 -0.0106,-0.03187 0,-0.03187 0.0115,0 0.004,0.02463 0.0134,0.03187 0.0218,0.01755 0.0574,-0.0089 0.0839,0 0.42533,0.141776 -0.27674,-0.02778 0.28913,0.08674 0.0989,0.02001 0.19503,0.05525 0.29533,0.06597 0.16801,0.01796 0.37747,-0.01505 0.5478,0.03045 0.0735,0.01964 0.33694,0.07033 0.39111,0.07033"
             id="path46565" />
          <path
             style="line-height:1.25;letter-spacing:0px;word-spacing:0px;fill:none;stroke:#000000;stroke-width:0.22763px;stroke-linecap:butt;stroke-linejoin:miter;stroke-opacity:1"
             d="m 160.26615,46.537898 c 0.0595,0 0.12119,0.01543 0.17873,0 0.0543,-0.01457 0.0943,-0.06161 0.14456,-0.08674 0.15291,-0.07646 0.32323,-0.09786 0.4626,-0.202389 0.0427,-0.03199 0.11874,-0.06432 0.14456,-0.115649 0.0189,-0.03748 0.012,-0.07038 0.0268,-0.0571 0.0545,0.04894 0.007,0.04906 0.0259,0.103993 0.014,0.04075 0.0385,0.0771 0.0578,0.11565 0.0193,0.04819 0.0415,0.09531 0.0578,0.144561 0.11232,0.338321 0.19975,0.727234 0.23538,1.083498 0.0122,0.12181 0.009,0.228141 0.0289,0.346953 0.0102,0.06163 0.0232,0.144336 0,0.11529"
             id="path46567" />
        </g>
        <text
           xml:space="preserve"
           style="font-style:normal;font-weight:normal;font-size:10.5833px;line-height:1.25;font-family:sans-serif;letter-spacing:0px;word-spacing:0px;fill:#000000;fill-opacity:1;stroke:none;stroke-width:0.0185219"
           x="87.991547"
           y="46.008312"
           id="text61677"><tspan
             sodipodi:role="line"
             id="tspan61675"
             style="stroke-width:0.0185219"
             x="87.991547"
             y="46.008312">+</tspan></text>
        <text
           xml:space="preserve"
           style="font-style:normal;font-weight:normal;font-size:10.5833px;line-height:1.25;font-family:sans-serif;text-align:center;letter-spacing:0px;word-spacing:0px;text-anchor:middle;fill:#000000;fill-opacity:1;stroke:none;stroke-width:0.0185219"
           x="137.21875"
           y="46.003143"
           id="text61677-3"><tspan
             sodipodi:role="line"
             id="tspan61675-7"
             style="stroke-width:0.0185219"
             x="137.21875"
             y="46.003143">=</tspan></text>
      </g>
    </g>
  </g>
</svg>
