<?xml version="1.0" encoding="UTF-8" standalone="no"?>
<!-- Created with Inkscape (http://www.inkscape.org/) -->

<svg
   width="289.01321mm"
   height="102.94992mm"
   viewBox="0 0 289.01321 102.94992"
   version="1.1"
   id="svg5"
   sodipodi:docname="group-commutative.svg"
   inkscape:version="1.1.2 (0a00cf5339, 2022-02-04)"
   xmlns:inkscape="http://www.inkscape.org/namespaces/inkscape"
   xmlns:sodipodi="http://sodipodi.sourceforge.net/DTD/sodipodi-0.dtd"
   xmlns="http://www.w3.org/2000/svg"
   xmlns:svg="http://www.w3.org/2000/svg">
  <sodipodi:namedview
     id="namedview7"
     pagecolor="#ffffff"
     bordercolor="#999999"
     borderopacity="1"
     inkscape:pageshadow="0"
     inkscape:pageopacity="0"
     inkscape:pagecheckerboard="0"
     inkscape:document-units="mm"
     showgrid="false"
     inkscape:zoom="0.98413176"
     inkscape:cx="546.1667"
     inkscape:cy="194.0797"
     inkscape:window-width="1920"
     inkscape:window-height="1025"
     inkscape:window-x="0"
     inkscape:window-y="29"
     inkscape:window-maximized="1"
     inkscape:current-layer="text2620"
     fit-margin-top="0"
     fit-margin-left="60"
     fit-margin-right="60"
     fit-margin-bottom="0"
     height="134.47083mm" />
  <defs
     id="defs2" />
  <g
     inkscape:label="Layer 1"
     inkscape:groupmode="layer"
     id="layer1"
     transform="translate(41.429393,5.9873003)">
    <g
       aria-label="x ∈ A or x ∈ B ⇔ x ∈ A ∪ B"
       id="text2102"
       style="font-size:21.1667px;text-align:center;text-anchor:middle;stroke-width:0.264583"
       transform="translate(0,-16.404169)">
      <g
         aria-label="x ∈ Evens if x ∈ ℤ and x mod 2 = 0"
         id="text1851"
         style="font-size:22.5778px;stroke-width:0.0700042">
        <g
           aria-label="Events ∈ AllSets"
           id="text2620"
           style="line-height:1.25;letter-spacing:0px;word-spacing:0px;stroke-width:0.0185219">
          <g
             aria-label="∀x, y ∈ S
(x ⊚ y) = (y ⊚ x) "
             id="text5480"
             style="font-size:22.5778px;stroke-width:0.00490059">
            <path
               d="M 59.711393,47.517137 62.74308,39.326069 H 56.69073 Z M 58.454621,49.710976 52.17076,33.251671 h 2.34818 l 1.499307,4.222313 h 7.419365 l 1.499307,-4.222313 h 2.315106 l -6.272836,16.459305 z"
               id="path18663" />
            <path
               d="m 79.830771,37.363741 -4.464849,6.008253 4.696359,6.338982 h -2.392277 l -3.593927,-4.8507 -3.593927,4.8507 h -2.392277 l 4.795578,-6.46025 -4.387678,-5.886985 h 2.392277 l 3.274222,4.398702 3.274222,-4.398702 z"
               id="path18665" />
            <path
               d="m 83.446747,46.910799 h 2.32613 v 1.896183 l -1.807987,3.527781 h -1.422137 l 0.903994,-3.527781 z"
               id="path18667" />
            <path
               d="m 102.4196,50.857505 q -0.8599,2.204863 -1.6757,2.877346 -0.815798,0.672484 -2.182813,0.672484 H 96.940512 V 52.70959 h 1.190627 q 0.837848,0 1.300869,-0.396876 0.463021,-0.396875 1.025262,-1.874133 l 0.3638,-0.926043 -4.994014,-12.148797 h 2.149742 l 3.858512,9.657301 3.85851,-9.657301 h 2.14974 z"
               id="path18669" />
            <path
               d="m 119.47421,42.798729 q 0.0772,0.815799 0.77171,2.138717 0.81579,1.532381 2.3592,2.392277 1.51033,0.837848 3.14193,0.848873 h 7.68395 v 1.752866 h -7.68395 q -2.11667,0 -4.079,-1.091407 -1.9513,-1.091408 -2.99861,-3.031687 -1.04731,-1.94028 -1.04731,-4.001827 0,-2.039499 1.04731,-3.979779 1.04731,-1.94028 2.99861,-3.042711 1.96233,-1.102432 4.079,-1.102432 h 7.68395 v 1.752866 h -7.68395 q -1.6316,0.01102 -3.14193,0.859897 -1.53238,0.870921 -2.3592,2.392277 -0.70556,1.322918 -0.80478,2.348179 H 133.431 v 1.763891 z"
               id="path18671" />
            <path
               d="m 154.61974,33.791862 v 2.171791 q -1.2678,-0.606338 -2.39228,-0.903994 -1.12448,-0.297657 -2.17179,-0.297657 -1.81901,0 -2.8112,0.705556 -0.98116,0.705557 -0.98116,2.006426 0,1.091407 0.65043,1.653648 0.66146,0.551215 2.4915,0.892969 l 1.34496,0.275608 q 2.4915,0.474046 3.6711,1.675696 1.19063,1.190626 1.19063,3.197052 0,2.392277 -1.60955,3.627 -1.59853,1.234724 -4.69636,1.234724 -1.16858,0 -2.4915,-0.264584 -1.31189,-0.264583 -2.723,-0.782726 v -2.293058 q 1.35599,0.760678 2.65686,1.146529 1.30087,0.385851 2.55764,0.385851 1.90721,0 2.94349,-0.749654 1.03629,-0.749653 1.03629,-2.138717 0,-1.212675 -0.74966,-1.896183 -0.73863,-0.683507 -2.43637,-1.025261 l -1.35599,-0.264584 q -2.4915,-0.496094 -3.60495,-1.554428 -1.11346,-1.058335 -1.11346,-2.943493 0,-2.182815 1.53238,-3.439587 1.54341,-1.256772 4.24436,-1.256772 1.15756,0 2.35921,0.209462 1.20165,0.209462 2.45842,0.628386 z"
               id="path18673" />
            <path
               d="m 17.185091,60.801438 q -1.477259,2.535593 -2.193839,5.016064 -0.716581,2.480472 -0.716581,5.027089 0,2.546617 0.716581,5.049137 0.727605,2.491496 2.193839,5.016064 H 15.4212 q -1.653647,-2.590714 -2.480471,-5.093234 -0.8158,-2.50252 -0.8158,-4.971967 0,-2.458423 0.8158,-4.949918 0.815799,-2.491496 2.480471,-5.093235 z"
               id="path18675" />
            <path
               d="m 31.384411,65.585992 -4.464849,6.008252 4.696359,6.338983 h -2.392277 l -3.593927,-4.8507 -3.593927,4.8507 h -2.392277 l 4.795578,-6.46025 -4.387678,-5.886985 h 2.392277 l 3.274222,4.398702 3.274222,-4.398702 z"
               id="path18677" />
            <path
               d="m 48.990245,68.749971 q -0.881946,0 -1.488283,0.617361 -0.606337,0.606338 -0.606337,1.488283 0,0.870921 0.606337,1.477259 0.606337,0.595313 1.488283,0.595313 0.881945,0 1.488282,-0.595313 0.606338,-0.606338 0.606338,-1.477259 0,-0.870921 -0.617362,-1.488283 -0.606337,-0.617361 -1.477258,-0.617361 z m 0,-1.422137 q 0.705556,0 1.355991,0.275608 0.650434,0.264583 1.12448,0.771702 0.507119,0.496094 0.760678,1.12448 0.253559,0.628386 0.253559,1.355991 0,1.45521 -1.025261,2.469447 -1.014237,1.003213 -2.491496,1.003213 -1.488283,0 -2.480471,-0.992189 -0.992189,-0.992188 -0.992189,-2.480471 0,-1.477258 1.014237,-2.50252 1.014238,-1.025261 2.480472,-1.025261 z m 2.204863,-1.819012 q -1.025261,-0.429949 -2.204863,-0.429949 -1.179602,0 -2.204864,0.429949 -1.014237,0.429948 -1.852085,1.267796 -0.848872,0.848872 -1.267796,1.86311 -0.418924,1.014237 -0.418924,2.215887 0,1.168578 0.418924,2.182815 0.418924,1.014237 1.267796,1.863109 0.837848,0.837849 1.852085,1.267797 1.025262,0.429948 2.204864,0.429948 1.179602,0 2.204863,-0.429948 1.014237,-0.429948 1.852085,-1.267797 0.848873,-0.848872 1.267797,-1.863109 0.418924,-1.014237 0.418924,-2.182815 0,-1.20165 -0.418924,-2.215887 -0.418924,-1.014238 -1.267797,-1.86311 -0.837848,-0.837848 -1.852085,-1.267796 z m -5.038113,-1.53238 q 1.311894,-0.551216 2.83325,-0.551216 1.521355,0 2.833249,0.551216 1.311894,0.551215 2.392277,1.631598 1.091407,1.091408 1.631599,2.403301 0.540191,1.30087 0.540191,2.844274 0,1.510332 -0.540191,2.822225 -0.540192,1.30087 -1.631599,2.392277 -1.080383,1.080383 -2.392277,1.631599 -1.311894,0.551216 -2.833249,0.551216 -1.521356,0 -2.83325,-0.551216 Q 44.845102,77.1505 43.764719,76.070117 42.673311,74.97871 42.13312,73.67784 q -0.540192,-1.311893 -0.540192,-2.822225 0,-1.543404 0.540192,-2.844274 0.540191,-1.311893 1.631599,-2.403301 1.080383,-1.080383 2.392276,-1.631598 z"
               id="path18679" />
            <path
               d="m 72.890966,79.079756 q -0.859896,2.204863 -1.675696,2.877346 -0.815799,0.672484 -2.182815,0.672484 h -1.620574 v -1.697745 h 1.190626 q 0.837848,0 1.300869,-0.396876 0.463022,-0.396875 1.025262,-1.874134 L 71.29244,77.734789 66.298425,65.585992 h 2.149742 l 3.85851,9.657301 3.858511,-9.657301 h 2.149742 z"
               id="path18681" />
            <path
               d="m 80.795403,60.801438 h 1.76389 q 1.653648,2.601739 2.469447,5.093235 0.826824,2.491495 0.826824,4.949918 0,2.469447 -0.826824,4.971967 -0.815799,2.50252 -2.469447,5.093234 h -1.76389 q 1.466234,-2.524568 2.182814,-5.016064 0.727605,-2.50252 0.727605,-5.049137 0,-2.546617 -0.727605,-5.027089 -0.71658,-2.480471 -2.182814,-5.016064 z"
               id="path18683" />
            <path
               d="m 97.364951,67.680612 h 14.133179 v 1.852085 H 97.364951 Z m 0,4.497921 h 14.133179 v 1.874134 H 97.364951 Z"
               id="path18685" />
            <path
               d="m 128.06767,60.801438 q -1.47725,2.535593 -2.19383,5.016064 -0.71659,2.480472 -0.71659,5.027089 0,2.546617 0.71659,5.049137 0.7276,2.491496 2.19383,5.016064 h -1.76389 q -1.65364,-2.590714 -2.48047,-5.093234 -0.8158,-2.50252 -0.8158,-4.971967 0,-2.458423 0.8158,-4.949918 0.8158,-2.491496 2.48047,-5.093235 z"
               id="path18687" />
            <path
               d="m 137.14068,79.079756 q -0.85989,2.204863 -1.67569,2.877346 -0.8158,0.672484 -2.18282,0.672484 h -1.62057 v -1.697745 h 1.19062 q 0.83785,0 1.30087,-0.396876 0.46303,-0.396875 1.02527,-1.874134 l 0.3638,-0.926042 -4.99402,-12.148797 h 2.14974 l 3.85852,9.657301 3.85851,-9.657301 h 2.14974 z"
               id="path18689" />
            <path
               d="m 159.87282,68.749971 q -0.88194,0 -1.48828,0.617361 -0.60634,0.606338 -0.60634,1.488283 0,0.870921 0.60634,1.477259 0.60634,0.595313 1.48828,0.595313 0.88195,0 1.48829,-0.595313 0.60633,-0.606338 0.60633,-1.477259 0,-0.870921 -0.61736,-1.488283 -0.60634,-0.617361 -1.47726,-0.617361 z m 0,-1.422137 q 0.70556,0 1.35599,0.275608 0.65044,0.264583 1.12448,0.771702 0.50712,0.496094 0.76068,1.12448 0.25356,0.628386 0.25356,1.355991 0,1.45521 -1.02526,2.469447 -1.01424,1.003213 -2.4915,1.003213 -1.48828,0 -2.48047,-0.992189 -0.99219,-0.992188 -0.99219,-2.480471 0,-1.477258 1.01424,-2.50252 1.01424,-1.025261 2.48047,-1.025261 z m 2.20487,-1.819012 q -1.02527,-0.429949 -2.20487,-0.429949 -1.1796,0 -2.20486,0.429949 -1.01424,0.429948 -1.85209,1.267796 -0.84887,0.848872 -1.26779,1.86311 -0.41893,1.014237 -0.41893,2.215887 0,1.168578 0.41893,2.182815 0.41892,1.014237 1.26779,1.863109 0.83785,0.837849 1.85209,1.267797 1.02526,0.429948 2.20486,0.429948 1.1796,0 2.20487,-0.429948 1.01423,-0.429948 1.85208,-1.267797 0.84887,-0.848872 1.2678,-1.863109 0.41892,-1.014237 0.41892,-2.182815 0,-1.20165 -0.41892,-2.215887 -0.41893,-1.014238 -1.2678,-1.86311 -0.83785,-0.837848 -1.85208,-1.267796 z m -5.03812,-1.53238 q 1.3119,-0.551216 2.83325,-0.551216 1.52136,0 2.83325,0.551216 1.3119,0.551215 2.39228,1.631598 1.09141,1.091408 1.6316,2.403301 0.54019,1.30087 0.54019,2.844274 0,1.510332 -0.54019,2.822225 -0.54019,1.30087 -1.6316,2.392277 -1.08038,1.080383 -2.39228,1.631599 -1.31189,0.551216 -2.83325,0.551216 -1.52135,0 -2.83325,-0.551216 -1.31189,-0.551216 -2.39227,-1.631599 -1.09141,-1.091407 -1.6316,-2.392277 -0.54019,-1.311893 -0.54019,-2.822225 0,-1.543404 0.54019,-2.844274 0.54019,-1.311893 1.6316,-2.403301 1.08038,-1.080383 2.39227,-1.631598 z"
               id="path18691" />
            <path
               d="m 188.89985,65.585992 -4.46485,6.008252 4.69636,6.338983 h -2.39228 l -3.59392,-4.8507 -3.59393,4.8507 h -2.39228 l 4.79558,-6.46025 -4.38768,-5.886985 h 2.39228 l 3.27422,4.398702 3.27422,-4.398702 z"
               id="path18693" />
            <path
               d="m 191.67799,60.801438 h 1.76389 q 1.65364,2.601739 2.46944,5.093235 0.82683,2.491495 0.82683,4.949918 0,2.469447 -0.82683,4.971967 -0.8158,2.50252 -2.46944,5.093234 h -1.76389 q 1.46623,-2.524568 2.18281,-5.016064 0.72761,-2.50252 0.72761,-5.049137 0,-2.546617 -0.72761,-5.027089 -0.71658,-2.480471 -2.18281,-5.016064 z"
               id="path18695" />
          </g>
        </g>
      </g>
    </g>
  </g>
</svg>
