<?xml version="1.0" encoding="UTF-8" standalone="no"?>
<!-- Created with Inkscape (http://www.inkscape.org/) -->

<svg
   width="289.01321mm"
   height="102.94992mm"
   viewBox="0 0 289.01321 102.94992"
   version="1.1"
   id="svg5"
   sodipodi:docname="group-closure.svg"
   inkscape:version="1.1.2 (0a00cf5339, 2022-02-04)"
   xmlns:inkscape="http://www.inkscape.org/namespaces/inkscape"
   xmlns:sodipodi="http://sodipodi.sourceforge.net/DTD/sodipodi-0.dtd"
   xmlns="http://www.w3.org/2000/svg"
   xmlns:svg="http://www.w3.org/2000/svg">
  <sodipodi:namedview
     id="namedview7"
     pagecolor="#ffffff"
     bordercolor="#999999"
     borderopacity="1"
     inkscape:pageshadow="0"
     inkscape:pageopacity="0"
     inkscape:pagecheckerboard="0"
     inkscape:document-units="mm"
     showgrid="false"
     inkscape:zoom="0.34787913"
     inkscape:cx="546.1667"
     inkscape:cy="194.03291"
     inkscape:window-width="1229"
     inkscape:window-height="709"
     inkscape:window-x="0"
     inkscape:window-y="29"
     inkscape:window-maximized="1"
     inkscape:current-layer="text2102"
     fit-margin-top="0"
     fit-margin-left="60"
     fit-margin-right="60"
     fit-margin-bottom="0"
     height="134.47083mm" />
  <defs
     id="defs2" />
  <g
     inkscape:label="Layer 1"
     inkscape:groupmode="layer"
     id="layer1"
     transform="translate(41.429393,5.9873003)">
    <g
       aria-label="x ∈ A or x ∈ B ⇔ x ∈ A ∪ B"
       id="text2102"
       style="font-size:21.1667px;text-align:center;text-anchor:middle;stroke-width:0.264583"
       transform="translate(0,-16.404169)">
      <g
         aria-label="∀a,b ∈ S,
a ⊚ b ∈ S"
         id="text10272"
         style="font-size:22.5778px;stroke-width:0.0700042">
        <path
           d="m 56.769566,46.417607 3.031687,-8.191067 h -6.05235 z m -1.256772,2.193839 -6.283861,-16.459305 h 2.34818 l 1.499307,4.222314 h 7.419365 l 1.499307,-4.222314 h 2.315107 l -6.272837,16.459305 z"
           id="path23293" />
        <path
           d="m 72.236682,42.404756 q -2.458423,0 -3.406514,0.56224 -0.948091,0.56224 -0.948091,1.918231 0,1.080383 0.705556,1.719794 0.716581,0.628386 1.94028,0.628386 1.68672,0 2.700957,-1.190626 1.025262,-1.201651 1.025262,-3.186028 v -0.451997 z m 4.045924,-0.837848 v 7.044538 h -2.028474 v -1.874133 q -0.694532,1.12448 -1.730818,1.664671 -1.036286,0.529168 -2.535593,0.529168 -1.896182,0 -3.020662,-1.058335 -1.113456,-1.069359 -1.113456,-2.855298 0,-2.083596 1.389063,-3.14193 1.400089,-1.058335 4.167192,-1.058335 h 2.844274 v -0.198437 q 0,-1.400089 -0.926043,-2.160766 -0.915018,-0.771703 -2.57969,-0.771703 -1.058334,0 -2.061547,0.25356 -1.003213,0.253559 -1.929256,0.760678 v -1.874134 q 1.113456,-0.429949 2.160767,-0.639411 1.04731,-0.220486 2.039498,-0.220486 2.678909,0 4.001827,1.389064 1.322918,1.389064 1.322918,4.211289 z"
           id="path23295" />
        <path
           d="m 80.978966,45.81127 h 2.326131 v 1.896182 l -1.807988,3.527782 h -1.422137 l 0.903994,-3.527782 z"
           id="path23297" />
        <path
           d="m 96.501204,42.448853 q 0,-2.237936 -0.926042,-3.505732 -0.915018,-1.278821 -2.524569,-1.278821 -1.60955,0 -2.535593,1.278821 -0.915018,1.267796 -0.915018,3.505732 0,2.237937 0.915018,3.516757 0.926043,1.267797 2.535593,1.267797 1.609551,0 2.524569,-1.267797 0.926042,-1.27882 0.926042,-3.516757 z m -6.901222,-4.310508 q 0.639411,-1.102431 1.60955,-1.631598 0.981165,-0.540192 2.337156,-0.540192 2.24896,0 3.649048,1.785939 1.411113,1.78594 1.411113,4.696359 0,2.91042 -1.411113,4.696359 -1.400088,1.78594 -3.649048,1.78594 -1.355991,0 -2.337156,-0.529168 -0.970139,-0.540191 -1.60955,-1.642623 v 1.852085 H 87.560484 V 31.457609 h 2.039498 z"
           id="path23299" />
        <path
           d="m 110.79974,41.6992 q 0.0772,0.815799 0.77171,2.138717 0.81579,1.53238 2.3592,2.392277 1.51033,0.837848 3.14193,0.848872 h 7.68395 v 1.752867 h -7.68395 q -2.11667,0 -4.079,-1.091408 -1.9513,-1.091407 -2.99861,-3.031687 -1.04731,-1.94028 -1.04731,-4.001827 0,-2.039498 1.04731,-3.979778 1.04731,-1.94028 2.99861,-3.042712 1.96233,-1.102431 4.079,-1.102431 h 7.68395 v 1.752866 h -7.68395 q -1.6316,0.01102 -3.14193,0.859897 -1.53238,0.870921 -2.3592,2.392277 -0.70556,1.322918 -0.80478,2.348179 h 13.98986 V 41.6992 Z"
           id="path23301" />
        <path
           d="m 145.94526,32.692333 v 2.17179 q -1.26779,-0.606337 -2.39228,-0.903994 -1.12448,-0.297656 -2.17179,-0.297656 -1.81901,0 -2.8112,0.705556 -0.98116,0.705556 -0.98116,2.006426 0,1.091407 0.65043,1.653647 0.66146,0.551216 2.4915,0.89297 l 1.34497,0.275608 q 2.49149,0.474045 3.67109,1.675696 1.19063,1.190626 1.19063,3.197052 0,2.392277 -1.60955,3.627 -1.59853,1.234724 -4.69636,1.234724 -1.16858,0 -2.49149,-0.264584 -1.3119,-0.264584 -2.72301,-0.782727 v -2.293057 q 1.35599,0.760677 2.65686,1.146529 1.30087,0.385851 2.55764,0.385851 1.90721,0 2.94349,-0.749654 1.03629,-0.749653 1.03629,-2.138717 0,-1.212675 -0.74965,-1.896183 -0.73863,-0.683508 -2.43638,-1.025261 l -1.35599,-0.264584 q -2.49149,-0.496094 -3.60495,-1.554429 -1.11346,-1.058334 -1.11346,-2.943492 0,-2.182815 1.53238,-3.439587 1.54341,-1.256772 4.24437,-1.256772 1.15755,0 2.3592,0.209462 1.20165,0.209462 2.45842,0.628386 z"
           id="path23303" />
        <path
           d="m 150.84006,45.81127 h 2.32613 v 1.896182 l -1.80799,3.527782 h -1.42214 l 0.904,-3.527782 z"
           id="path23305" />
        <path
           d="m 55.055285,70.627007 q -2.458423,0 -3.406514,0.56224 -0.948091,0.56224 -0.948091,1.918231 0,1.080383 0.705556,1.719794 0.71658,0.628386 1.94028,0.628386 1.68672,0 2.700957,-1.190626 1.025262,-1.201651 1.025262,-3.186028 v -0.451997 z m 4.045924,-0.837848 v 7.044538 h -2.028474 v -1.874134 q -0.694532,1.124481 -1.730818,1.664672 -1.036286,0.529168 -2.535593,0.529168 -1.896182,0 -3.020663,-1.058335 -1.113456,-1.069359 -1.113456,-2.855298 0,-2.083596 1.389064,-3.14193 1.400088,-1.058335 4.167192,-1.058335 h 2.844274 v -0.198437 q 0,-1.400089 -0.926043,-2.160766 -0.915018,-0.771703 -2.57969,-0.771703 -1.058335,0 -2.061547,0.25356 -1.003213,0.253559 -1.929256,0.760678 v -1.874134 q 1.113456,-0.429949 2.160766,-0.639411 1.04731,-0.220486 2.039499,-0.220486 2.678909,0 4.001827,1.389064 1.322918,1.389064 1.322918,4.211289 z"
           id="path23307" />
        <path
           d="m 77.787426,67.650441 q -0.881945,0 -1.488283,0.617362 -0.606337,0.606338 -0.606337,1.488283 0,0.870921 0.606337,1.477258 0.606338,0.595314 1.488283,0.595314 0.881946,0 1.488283,-0.595314 0.606337,-0.606337 0.606337,-1.477258 0,-0.870921 -0.617361,-1.488283 -0.606338,-0.617362 -1.477259,-0.617362 z m 0,-1.422136 q 0.705556,0 1.355991,0.275608 0.650435,0.264583 1.12448,0.771702 0.507119,0.496094 0.760678,1.12448 0.25356,0.628386 0.25356,1.355991 0,1.45521 -1.025262,2.469447 -1.014237,1.003213 -2.491495,1.003213 -1.488283,0 -2.480472,-0.992189 -0.992188,-0.992188 -0.992188,-2.480471 0,-1.477258 1.014237,-2.50252 1.014237,-1.025261 2.480471,-1.025261 z m 2.204864,-1.819013 q -1.025262,-0.429948 -2.204864,-0.429948 -1.179602,0 -2.204863,0.429948 -1.014237,0.429949 -1.852085,1.267797 -0.848873,0.848872 -1.267797,1.863109 -0.418924,1.014237 -0.418924,2.215888 0,1.168578 0.418924,2.182815 0.418924,1.014237 1.267797,1.863109 0.837848,0.837848 1.852085,1.267797 1.025261,0.429948 2.204863,0.429948 1.179602,0 2.204864,-0.429948 1.014237,-0.429949 1.852085,-1.267797 0.848872,-0.848872 1.267796,-1.863109 0.418924,-1.014237 0.418924,-2.182815 0,-1.201651 -0.418924,-2.215888 -0.418924,-1.014237 -1.267796,-1.863109 -0.837848,-0.837848 -1.852085,-1.267797 z m -5.038113,-1.53238 q 1.311894,-0.551216 2.833249,-0.551216 1.521356,0 2.83325,0.551216 1.311893,0.551216 2.392276,1.631599 1.091408,1.091408 1.631599,2.403301 0.540192,1.30087 0.540192,2.844274 0,1.510331 -0.540192,2.822225 -0.540191,1.300869 -1.631599,2.392277 -1.080383,1.080383 -2.392276,1.631599 -1.311894,0.551216 -2.83325,0.551216 -1.521355,0 -2.833249,-0.551216 Q 73.642283,76.050971 72.5619,74.970588 71.470493,73.87918 70.930301,72.578311 70.39011,71.266417 70.39011,69.756086 q 0,-1.543404 0.540191,-2.844274 0.540192,-1.311893 1.631599,-2.403301 1.080383,-1.080383 2.392277,-1.631599 z"
           id="path23309" />
        <path
           d="m 105.41436,70.671104 q 0,-2.237936 -0.92604,-3.505732 -0.91502,-1.278821 -2.52457,-1.278821 -1.60955,0 -2.535589,1.278821 -0.915018,1.267796 -0.915018,3.505732 0,2.237937 0.915018,3.516757 0.926039,1.267797 2.535589,1.267797 1.60955,0 2.52457,-1.267797 0.92604,-1.27882 0.92604,-3.516757 z m -6.901217,-4.310508 q 0.63941,-1.102431 1.609547,-1.631598 0.98117,-0.540192 2.33716,-0.540192 2.24896,0 3.64905,1.785939 1.41111,1.78594 1.41111,4.696359 0,2.91042 -1.41111,4.696359 -1.40009,1.78594 -3.64905,1.78594 -1.35599,0 -2.33716,-0.529168 -0.970137,-0.540191 -1.609547,-1.642623 v 1.852085 H 96.473644 V 59.67986 h 2.039499 z"
           id="path23311" />
        <path
           d="m 119.7129,69.921451 q 0.0772,0.815799 0.77171,2.138717 0.8158,1.53238 2.3592,2.392277 1.51033,0.837848 3.14193,0.848872 h 7.68395 v 1.752867 h -7.68395 q -2.11667,0 -4.079,-1.091408 -1.9513,-1.091407 -2.99861,-3.031687 -1.04731,-1.94028 -1.04731,-4.001827 0,-2.039498 1.04731,-3.979778 1.04731,-1.94028 2.99861,-3.042712 1.96233,-1.102431 4.079,-1.102431 h 7.68395 v 1.752866 h -7.68395 q -1.6316,0.01102 -3.14193,0.859897 -1.53238,0.870921 -2.3592,2.392277 -0.70556,1.322918 -0.80478,2.348179 h 13.98986 v 1.763891 z"
           id="path23313" />
        <path
           d="m 154.85843,60.914584 v 2.17179 q -1.2678,-0.606337 -2.39228,-0.903994 -1.12448,-0.297656 -2.17179,-0.297656 -1.81901,0 -2.8112,0.705556 -0.98116,0.705556 -0.98116,2.006426 0,1.091407 0.65043,1.653647 0.66146,0.551216 2.4915,0.89297 l 1.34496,0.275608 q 2.4915,0.474045 3.6711,1.675696 1.19063,1.190626 1.19063,3.197052 0,2.392277 -1.60955,3.627 -1.59853,1.234724 -4.69636,1.234724 -1.16858,0 -2.4915,-0.264584 -1.31189,-0.264584 -2.723,-0.782727 v -2.293057 q 1.35599,0.760677 2.65686,1.146528 1.30087,0.385852 2.55764,0.385852 1.90721,0 2.94349,-0.749654 1.03629,-0.749654 1.03629,-2.138717 0,-1.212675 -0.74966,-1.896183 -0.73863,-0.683508 -2.43637,-1.025261 l -1.35599,-0.264584 q -2.4915,-0.496094 -3.60495,-1.554429 -1.11346,-1.058334 -1.11346,-2.943492 0,-2.182815 1.53238,-3.439587 1.54341,-1.256772 4.24436,-1.256772 1.15756,0 2.35921,0.209462 1.20165,0.209462 2.45842,0.628386 z"
           id="path23315" />
      </g>
    </g>
  </g>
</svg>
