<?xml version="1.0" encoding="UTF-8" standalone="no"?>
<!-- Created with Inkscape (http://www.inkscape.org/) -->

<svg
   width="289.01321mm"
   height="102.94992mm"
   viewBox="0 0 289.01321 102.94992"
   version="1.1"
   id="svg5"
   sodipodi:docname="intersection-double-arrow.svg"
   inkscape:version="1.1.2 (0a00cf5339, 2022-02-04)"
   xmlns:inkscape="http://www.inkscape.org/namespaces/inkscape"
   xmlns:sodipodi="http://sodipodi.sourceforge.net/DTD/sodipodi-0.dtd"
   xmlns="http://www.w3.org/2000/svg"
   xmlns:svg="http://www.w3.org/2000/svg">
  <sodipodi:namedview
     id="namedview7"
     pagecolor="#ffffff"
     bordercolor="#999999"
     borderopacity="1"
     inkscape:pageshadow="0"
     inkscape:pageopacity="0"
     inkscape:pagecheckerboard="0"
     inkscape:document-units="mm"
     showgrid="false"
     inkscape:zoom="0.53568197"
     inkscape:cx="578.70157"
     inkscape:cy="320.15265"
     inkscape:window-width="1229"
     inkscape:window-height="709"
     inkscape:window-x="0"
     inkscape:window-y="29"
     inkscape:window-maximized="1"
     inkscape:current-layer="layer1"
     fit-margin-top="0"
     fit-margin-left="60"
     fit-margin-right="60"
     fit-margin-bottom="0"
     height="134.47083mm" />
  <defs
     id="defs2" />
  <g
     inkscape:label="Layer 1"
     inkscape:groupmode="layer"
     id="layer1"
     transform="translate(41.429393,5.9873003)">
    <g
       aria-label="x ∈ A and x ∈ B
⇔
x ∈ A ∩ B"
       id="text2102"
       style="font-size:21.1667px;text-align:center;text-anchor:middle;stroke-width:0.264583"
       transform="translate(0,-16.404169)">
      <path
         d="m 29.577705,32.263622 -4.185798,5.63274 4.402839,5.942799 h -2.242761 l -3.369308,-4.547533 -3.369309,4.547533 h -2.242761 l 4.495857,-6.056488 -4.113451,-5.519051 h 2.242761 l 3.069585,4.123786 3.069585,-4.123786 z"
         id="path27163" />
      <path
         d="m 40.760502,37.358926 q 0.07235,0.764812 0.723471,2.005049 0.764813,1.436607 2.211755,2.24276 1.415937,0.785484 2.945562,0.795819 h 7.203706 v 1.643313 H 46.64129 q -1.984379,0 -3.824062,-1.023195 -1.829349,-1.023195 -2.811203,-2.842208 -0.981854,-1.819014 -0.981854,-3.751715 0,-1.912031 0.981854,-3.731045 0.981854,-1.819013 2.811203,-2.852543 1.839683,-1.033531 3.824062,-1.033531 h 7.203706 v 1.643314 H 46.64129 q -1.529625,0.01033 -2.945562,0.806153 -1.436607,0.816489 -2.211755,2.242761 -0.661459,1.240236 -0.754477,2.20142 h 13.1155 v 1.653648 z"
         id="path27165" />
      <path
         d="m 69.616667,30.465279 -2.831873,7.67913 h 5.674082 z m -1.178224,-2.056725 h 2.366784 l 5.880788,15.430607 H 74.515601 L 73.11,39.88074 h -6.955659 l -1.405601,3.958421 h -2.20142 z"
         id="path27167" />
      <path
         d="m 90.84538,38.020385 q -2.304772,0 -3.193608,0.527101 -0.888837,0.5271 -0.888837,1.798343 0,1.012859 0.66146,1.612307 0.671795,0.589112 1.819013,0.589112 1.581301,0 2.532149,-1.116213 0.961184,-1.126548 0.961184,-2.986902 v -0.423748 z m 3.793056,-0.785483 v 6.604259 h -1.901695 v -1.757002 q -0.651125,1.054201 -1.622643,1.560631 -0.971518,0.496095 -2.37712,0.496095 -1.777672,0 -2.831873,-0.992189 -1.043865,-1.002525 -1.043865,-2.676844 0,-1.953372 1.302248,-2.945561 1.312583,-0.992189 3.906744,-0.992189 h 2.666509 v -0.186036 q 0,-1.312583 -0.868166,-2.025719 -0.85783,-0.723471 -2.418461,-0.723471 -0.992189,0 -1.932701,0.237712 -0.940513,0.237712 -1.808678,0.713136 v -1.757002 q 1.043865,-0.403077 2.025719,-0.599447 0.981854,-0.206707 1.912031,-0.206707 2.511479,0 3.751715,1.302249 1.240236,1.302248 1.240236,3.948085 z"
         id="path27169" />
      <path
         d="m 108.17768,36.852496 v 6.986665 h -1.9017 v -6.924653 q 0,-1.643313 -0.64078,-2.459802 -0.64079,-0.816489 -1.92237,-0.816489 -1.53996,0 -2.4288,0.981854 -0.88883,0.981853 -0.88883,2.676843 v 6.542247 H 98.483166 V 32.263622 h 1.912034 v 1.798342 q 0.68213,-1.043865 1.60197,-1.56063 0.93018,-0.516766 2.13941,-0.516766 1.99471,0 3.01791,1.240237 1.02319,1.229901 1.02319,3.627691 z"
         id="path27171" />
      <path
         d="M 119.58785,34.020623 V 27.75743 h 1.9017 v 16.081731 h -1.9017 V 42.10283 q -0.59944,1.03353 -1.51929,1.53996 -0.9095,0.496095 -2.19108,0.496095 -2.09807,0 -3.42099,-1.674319 -1.31258,-1.674319 -1.31258,-4.402839 0,-2.72852 1.31258,-4.402839 1.32292,-1.67432 3.42099,-1.67432 1.28158,0 2.19108,0.50643 0.91985,0.496095 1.51929,1.529625 z m -6.48023,4.041104 q 0,2.098066 0.85783,3.296961 0.86816,1.18856 2.37712,1.18856 1.50895,0 2.37712,-1.18856 0.86816,-1.198895 0.86816,-3.296961 0,-2.098067 -0.86816,-3.286627 -0.86817,-1.198895 -2.37712,-1.198895 -1.50896,0 -2.37712,1.198895 -0.85783,1.18856 -0.85783,3.286627 z"
         id="path27173" />
      <path
         d="m 141.75708,32.263622 -4.1858,5.63274 4.40284,5.942799 h -2.24276 l -3.36931,-4.547533 -3.36931,4.547533 h -2.24276 l 4.49586,-6.056488 -4.11345,-5.519051 h 2.24276 l 3.06958,4.123786 3.06959,-4.123786 z"
         id="path27175" />
      <path
         d="m 152.93988,37.358926 q 0.0724,0.764812 0.72348,2.005049 0.76481,1.436607 2.21175,2.24276 1.41594,0.785484 2.94556,0.795819 h 7.20371 v 1.643313 h -7.20371 q -1.98438,0 -3.82406,-1.023195 -1.82935,-1.023195 -2.8112,-2.842208 -0.98186,-1.819014 -0.98186,-3.751715 0,-1.912031 0.98186,-3.731045 0.98185,-1.819013 2.8112,-2.852543 1.83968,-1.033531 3.82406,-1.033531 h 7.20371 v 1.643314 h -7.20371 q -1.52962,0.01033 -2.94556,0.806153 -1.43661,0.816489 -2.21175,2.242761 -0.66146,1.240236 -0.75448,2.20142 h 13.1155 v 1.653648 z"
         id="path27177" />
      <path
         d="m 178.72646,36.47009 v 5.653411 h 3.34864 q 1.68465,0 2.49081,-0.692466 0.81649,-0.7028 0.81649,-2.139407 0,-1.446943 -0.81649,-2.129073 -0.80616,-0.692465 -2.49081,-0.692465 z m 0,-6.345876 V 34.7751 h 3.09026 q 1.52962,0 2.27376,-0.568441 0.75448,-0.578777 0.75448,-1.757002 0,-1.167889 -0.75448,-1.746666 -0.74414,-0.578777 -2.27376,-0.578777 z m -2.08773,-1.71566 h 5.33302 q 2.38745,0 3.67936,0.992189 1.29192,0.992189 1.29192,2.821537 0,1.415937 -0.66146,2.253096 -0.66146,0.83716 -1.94304,1.043866 1.53996,0.33073 2.38746,1.384931 0.85783,1.043865 0.85783,2.614831 0,2.067061 -1.40561,3.193609 -1.4056,1.126548 -3.99976,1.126548 h -5.53972 z"
         id="path27179" />
      <path
         d="m 98.788061,64.747479 h 9.467139 l 1.0852,-1.085207 -1.0852,-1.085207 h -9.467139 l -1.085207,1.085207 z m 8.226899,1.240236 h -6.98666 l 0.96118,0.961183 -1.240236,1.240237 -4.061774,-4.061774 v -0.930178 l 4.061774,-4.061774 1.240236,1.240237 -0.96118,0.961183 h 6.98666 l -0.96118,-0.961183 1.24023,-1.240237 4.06178,4.061774 v 0.930178 l -4.06178,4.061774 -1.24023,-1.240237 z"
         id="path27181" />
      <path
         d="m 63.952922,85.180373 -4.185798,5.63274 4.402839,5.942799 h -2.24276 l -3.369309,-4.547533 -3.369309,4.547533 h -2.24276 l 4.495856,-6.056488 -4.11345,-5.519051 h 2.24276 l 3.069585,4.123785 3.069585,-4.123785 z"
         id="path27183" />
      <path
         d="m 75.13572,90.275677 q 0.07235,0.764812 0.723471,2.005049 0.764812,1.436607 2.211755,2.24276 1.415936,0.785483 2.945561,0.795819 h 7.203706 v 1.643313 h -7.203706 q -1.984378,0 -3.824062,-1.023195 -1.829349,-1.023195 -2.811202,-2.842208 -0.981854,-1.819014 -0.981854,-3.751715 0,-1.912031 0.981854,-3.731045 0.981853,-1.819013 2.811202,-2.852543 1.839684,-1.033531 3.824062,-1.033531 h 7.203706 v 1.643314 h -7.203706 q -1.529625,0.01033 -2.945561,0.806153 -1.436607,0.816489 -2.211755,2.242761 -0.661459,1.240236 -0.754477,2.201419 h 13.115499 v 1.653649 z"
         id="path27185" />
      <path
         d="m 103.99188,83.38203 -2.83187,7.67913 h 5.67408 z m -1.17822,-2.056725 h 2.36678 l 5.88079,15.430607 h -2.17041 l -1.4056,-3.958421 h -6.95566 l -1.405603,3.958421 h -2.201419 z"
         id="path27187" />
      <path
         d="m 120.69373,90.637413 q 0,-3.05925 1.26091,-4.59921 1.27124,-1.53996 3.76205,-1.53996 2.48047,0 3.74138,1.53996 1.27124,1.53996 1.27124,4.59921 v 6.118499 h -1.77767 v -5.860117 q 0,-2.521814 -0.76481,-3.607021 -0.76481,-1.095542 -2.47014,-1.095542 -1.71566,0 -2.48047,1.095542 -0.76481,1.085207 -0.76481,3.607021 v 5.860117 h -1.77768 z"
         id="path27189" />
      <path
         d="m 144.35124,89.386841 v 5.653411 h 3.34864 q 1.68466,0 2.49081,-0.692466 0.81649,-0.7028 0.81649,-2.139407 0,-1.446943 -0.81649,-2.129073 -0.80615,-0.692465 -2.49081,-0.692465 z m 0,-6.345876 v 4.650886 h 3.09026 q 1.52962,0 2.27377,-0.568441 0.75447,-0.578777 0.75447,-1.757002 0,-1.167889 -0.75447,-1.746666 -0.74415,-0.578777 -2.27377,-0.578777 z m -2.08773,-1.71566 h 5.33302 q 2.38745,0 3.67937,0.992189 1.29191,0.992189 1.29191,2.821537 0,1.415937 -0.66146,2.253096 -0.66146,0.83716 -1.94304,1.043866 1.53996,0.33073 2.38746,1.384931 0.85783,1.043865 0.85783,2.614831 0,2.067061 -1.4056,3.193609 -1.4056,1.126548 -3.99977,1.126548 h -5.53972 z"
         id="path27191" />
    </g>
  </g>
</svg>
